#
#
newmtl CA_head_CA_head_diff.png
Ns 96.078431
Ka 0.000000 0.000000 0.000000
Kd 0.640000 0.640000 0.640000
Ks 0.100000 0.100000 0.100000
Ni 1.000000
d 1.000000
illum 2
map_Kd CA_head_diff.png


newmtl CA_arm_leg_CA_arm_leg_diff.png
Ns 96.078431
Ka 0.000000 0.000000 0.000000
Kd 0.640000 0.640000 0.640000
Ks 0.100000 0.100000 0.100000
Ni 1.000000
d 1.000000
illum 2
map_Kd CA_arm_leg_diff.png


newmtl CA_torso_hand_CA_torso_hand_diff.png
Ns 96.078431
Ka 0.000000 0.000000 0.000000
Kd 0.640000 0.640000 0.640000
Ks 0.100000 0.100000 0.100000
Ni 1.000000
d 1.000000
illum 2
map_Kd CA_torso_hand_diff.png


