# 3ds Max Wavefront OBJ Exporter v0.97b - (c)2007 guruware
# File Created: 18.07.2010 14:57:03

newmtl Character_MIC
	Ns 10.000000
	Ni 1.500000
	d 1.000000
	Tr 0.000000
	Tf 1.000000 1.000000 1.000000 
	illum 2
	Ka 0.588000 0.588000 0.588000
	Kd 0.588000 0.588000 0.588000
	Ks 0.000000 0.000000 0.000000
	Ke 0.000000 0.000000 0.000000
	map_Ka Flash_Diff.png
	map_Kd Flash_Diff.png

newmtl material_1
	Ns 10.000000
	Ni 1.500000
	d 1.000000
	Tr 0.000000
	Tf 1.000000 1.000000 1.000000 
	illum 2
	Ka 0.588000 0.588000 0.588000
	Kd 0.588000 0.588000 0.588000
	Ks 0.000000 0.000000 0.000000
	Ke 0.000000 0.000000 0.000000
	map_Ka Flash_Diff.png
	map_Kd Flash_Diff.png

newmtl material_2
	Ns 10.000000
	Ni 1.500000
	d 1.000000
	Tr 0.000000
	Tf 1.000000 1.000000 1.000000 
	illum 2
	Ka 0.588000 0.588000 0.588000
	Kd 0.588000 0.588000 0.588000
	Ks 0.000000 0.000000 0.000000
	Ke 0.000000 0.000000 0.000000
	map_Ka Flash_Diff.png
	map_Kd Flash_Diff.png

newmtl material_3
	Ns 10.000000
	Ni 1.500000
	d 1.000000
	Tr 0.000000
	Tf 1.000000 1.000000 1.000000 
	illum 2
	Ka 0.588000 0.588000 0.588000
	Kd 0.588000 0.588000 0.588000
	Ks 0.000000 0.000000 0.000000
	Ke 0.000000 0.000000 0.000000
	map_Ka Flash_Diff.png
	map_Kd Flash_Diff.png

newmtl material_4
	Ns 10.000000
	Ni 1.500000
	d 1.000000
	Tr 0.000000
	Tf 1.000000 1.000000 1.000000 
	illum 2
	Ka 0.588000 0.588000 0.588000
	Kd 0.588000 0.588000 0.588000
	Ks 0.000000 0.000000 0.000000
	Ke 0.000000 0.000000 0.000000
	map_Ka Flash_Diff.png
	map_Kd Flash_Diff.png

newmtl material_5
	Ns 10.000000
	Ni 1.500000
	d 1.000000
	Tr 0.000000
	Tf 1.000000 1.000000 1.000000 
	illum 2
	Ka 0.588000 0.588000 0.588000
	Kd 0.588000 0.588000 0.588000
	Ks 0.000000 0.000000 0.000000
	Ke 0.000000 0.000000 0.000000
	map_Ka Flash_Diff.png
	map_Kd Flash_Diff.png

newmtl material_6
	Ns 10.000000
	Ni 1.500000
	d 1.000000
	Tr 0.000000
	Tf 1.000000 1.000000 1.000000 
	illum 2
	Ka 0.588000 0.588000 0.588000
	Kd 0.588000 0.588000 0.588000
	Ks 0.000000 0.000000 0.000000
	Ke 0.000000 0.000000 0.000000
	map_Ka Flash_Diff.png
	map_Kd Flash_Diff.png

newmtl material_7
	Ns 10.000000
	Ni 1.500000
	d 1.000000
	Tr 0.000000
	Tf 1.000000 1.000000 1.000000 
	illum 2
	Ka 0.588000 0.588000 0.588000
	Kd 0.588000 0.588000 0.588000
	Ks 0.000000 0.000000 0.000000
	Ke 0.000000 0.000000 0.000000
	map_Ka Flash_Diff.png
	map_Kd Flash_Diff.png

newmtl material_8
	Ns 10.000000
	Ni 1.500000
	d 1.000000
	Tr 0.000000
	Tf 1.000000 1.000000 1.000000 
	illum 2
	Ka 0.588000 0.588000 0.588000
	Kd 0.588000 0.588000 0.588000
	Ks 0.000000 0.000000 0.000000
	Ke 0.000000 0.000000 0.000000
	map_Ka Flash_Diff.png
	map_Kd Flash_Diff.png

newmtl material_9
	Ns 10.000000
	Ni 1.500000
	d 1.000000
	Tr 0.000000
	Tf 1.000000 1.000000 1.000000 
	illum 2
	Ka 0.588000 0.588000 0.588000
	Kd 0.588000 0.588000 0.588000
	Ks 0.000000 0.000000 0.000000
	Ke 0.000000 0.000000 0.000000
	map_Ka Flash_Diff.png
	map_Kd Flash_Diff.png

newmtl material_10
	Ns 10.000000
	Ni 1.500000
	d 1.000000
	Tr 0.000000
	Tf 1.000000 1.000000 1.000000 
	illum 2
	Ka 0.588000 0.588000 0.588000
	Kd 0.588000 0.588000 0.588000
	Ks 0.000000 0.000000 0.000000
	Ke 0.000000 0.000000 0.000000
	map_Ka Flash_Diff.png
	map_Kd Flash_Diff.png

newmtl material_11
	Ns 10.000000
	Ni 1.500000
	d 1.000000
	Tr 0.000000
	Tf 1.000000 1.000000 1.000000 
	illum 2
	Ka 0.588000 0.588000 0.588000
	Kd 0.588000 0.588000 0.588000
	Ks 0.000000 0.000000 0.000000
	Ke 0.000000 0.000000 0.000000
	map_Ka Flash_Diff.png
	map_Kd Flash_Diff.png

newmtl material_12
	Ns 10.000000
	Ni 1.500000
	d 1.000000
	Tr 0.000000
	Tf 1.000000 1.000000 1.000000 
	illum 2
	Ka 0.588000 0.588000 0.588000
	Kd 0.588000 0.588000 0.588000
	Ks 0.000000 0.000000 0.000000
	Ke 0.000000 0.000000 0.000000
	map_Ka Flash_Diff.png
	map_Kd Flash_Diff.png

newmtl material_13
	Ns 10.000000
	Ni 1.500000
	d 1.000000
	Tr 0.000000
	Tf 1.000000 1.000000 1.000000 
	illum 2
	Ka 0.588000 0.588000 0.588000
	Kd 0.588000 0.588000 0.588000
	Ks 0.000000 0.000000 0.000000
	Ke 0.000000 0.000000 0.000000
	map_Ka Flash_Diff.png
	map_Kd Flash_Diff.png

newmtl material_14
	Ns 10.000000
	Ni 1.500000
	d 1.000000
	Tr 0.000000
	Tf 1.000000 1.000000 1.000000 
	illum 2
	Ka 0.588000 0.588000 0.588000
	Kd 0.588000 0.588000 0.588000
	Ks 0.000000 0.000000 0.000000
	Ke 0.000000 0.000000 0.000000
	map_Ka Flash_Diff.png
	map_Kd Flash_Diff.png

newmtl material_15
	Ns 10.000000
	Ni 1.500000
	d 1.000000
	Tr 0.000000
	Tf 1.000000 1.000000 1.000000 
	illum 2
	Ka 0.588000 0.588000 0.588000
	Kd 0.588000 0.588000 0.588000
	Ks 0.000000 0.000000 0.000000
	Ke 0.000000 0.000000 0.000000
	map_Ka Flash_Diff.png
	map_Kd Flash_Diff.png

newmtl material_16
	Ns 10.000000
	Ni 1.500000
	d 1.000000
	Tr 0.000000
	Tf 1.000000 1.000000 1.000000 
	illum 2
	Ka 0.588000 0.588000 0.588000
	Kd 0.588000 0.588000 0.588000
	Ks 0.000000 0.000000 0.000000
	Ke 0.000000 0.000000 0.000000
	map_Ka Flash_Diff.png
	map_Kd Flash_Diff.png

newmtl material_17
	Ns 10.000000
	Ni 1.500000
	d 1.000000
	Tr 0.000000
	Tf 1.000000 1.000000 1.000000 
	illum 2
	Ka 0.588000 0.588000 0.588000
	Kd 0.588000 0.588000 0.588000
	Ks 0.000000 0.000000 0.000000
	Ke 0.000000 0.000000 0.000000
	map_Ka Flash_Diff.png
	map_Kd Flash_Diff.png

newmtl material_18
	Ns 10.000000
	Ni 1.500000
	d 1.000000
	Tr 0.000000
	Tf 1.000000 1.000000 1.000000 
	illum 2
	Ka 0.588000 0.588000 0.588000
	Kd 0.588000 0.588000 0.588000
	Ks 0.000000 0.000000 0.000000
	Ke 0.000000 0.000000 0.000000
	map_Ka Flash_Diff.png
	map_Kd Flash_Diff.png

newmtl material_19
	Ns 10.000000
	Ni 1.500000
	d 1.000000
	Tr 0.000000
	Tf 1.000000 1.000000 1.000000 
	illum 2
	Ka 0.588000 0.588000 0.588000
	Kd 0.588000 0.588000 0.588000
	Ks 0.000000 0.000000 0.000000
	Ke 0.000000 0.000000 0.000000
	map_Ka Flash_Diff.png
	map_Kd Flash_Diff.png

newmtl material_20
	Ns 10.000000
	Ni 1.500000
	d 1.000000
	Tr 0.000000
	Tf 1.000000 1.000000 1.000000 
	illum 2
	Ka 0.588000 0.588000 0.588000
	Kd 0.588000 0.588000 0.588000
	Ks 0.000000 0.000000 0.000000
	Ke 0.000000 0.000000 0.000000
	map_Ka Flash_Diff.png
	map_Kd Flash_Diff.png

newmtl material_21
	Ns 10.000000
	Ni 1.500000
	d 1.000000
	Tr 0.000000
	Tf 1.000000 1.000000 1.000000 
	illum 2
	Ka 0.588000 0.588000 0.588000
	Kd 0.588000 0.588000 0.588000
	Ks 0.000000 0.000000 0.000000
	Ke 0.000000 0.000000 0.000000
	map_Ka Flash_Diff.png
	map_Kd Flash_Diff.png

newmtl material_22
	Ns 10.000000
	Ni 1.500000
	d 1.000000
	Tr 0.000000
	Tf 1.000000 1.000000 1.000000 
	illum 2
	Ka 0.588000 0.588000 0.588000
	Kd 0.588000 0.588000 0.588000
	Ks 0.000000 0.000000 0.000000
	Ke 0.000000 0.000000 0.000000
	map_Ka Flash_Diff.png
	map_Kd Flash_Diff.png

newmtl material_23
	Ns 10.000000
	Ni 1.500000
	d 1.000000
	Tr 0.000000
	Tf 1.000000 1.000000 1.000000 
	illum 2
	Ka 0.588000 0.588000 0.588000
	Kd 0.588000 0.588000 0.588000
	Ks 0.000000 0.000000 0.000000
	Ke 0.000000 0.000000 0.000000
	map_Ka Flash_Diff.png
	map_Kd Flash_Diff.png

newmtl material_24
	Ns 10.000000
	Ni 1.500000
	d 1.000000
	Tr 0.000000
	Tf 1.000000 1.000000 1.000000 
	illum 2
	Ka 0.588000 0.588000 0.588000
	Kd 0.588000 0.588000 0.588000
	Ks 0.000000 0.000000 0.000000
	Ke 0.000000 0.000000 0.000000
	map_Ka Flash_Diff.png
	map_Kd Flash_Diff.png

newmtl material_25
	Ns 10.000000
	Ni 1.500000
	d 1.000000
	Tr 0.000000
	Tf 1.000000 1.000000 1.000000 
	illum 2
	Ka 0.588000 0.588000 0.588000
	Kd 0.588000 0.588000 0.588000
	Ks 0.000000 0.000000 0.000000
	Ke 0.000000 0.000000 0.000000
	map_Ka Flash_Diff.png
	map_Kd Flash_Diff.png

newmtl material_26
	Ns 10.000000
	Ni 1.500000
	d 1.000000
	Tr 0.000000
	Tf 1.000000 1.000000 1.000000 
	illum 2
	Ka 0.588000 0.588000 0.588000
	Kd 0.588000 0.588000 0.588000
	Ks 0.000000 0.000000 0.000000
	Ke 0.000000 0.000000 0.000000
	map_Ka Flash_Diff.png
	map_Kd Flash_Diff.png

newmtl material_27
	Ns 10.000000
	Ni 1.500000
	d 1.000000
	Tr 0.000000
	Tf 1.000000 1.000000 1.000000 
	illum 2
	Ka 0.588000 0.588000 0.588000
	Kd 0.588000 0.588000 0.588000
	Ks 0.000000 0.000000 0.000000
	Ke 0.000000 0.000000 0.000000
	map_Ka Flash_Diff.png
	map_Kd Flash_Diff.png

newmtl material_28
	Ns 10.000000
	Ni 1.500000
	d 1.000000
	Tr 0.000000
	Tf 1.000000 1.000000 1.000000 
	illum 2
	Ka 0.588000 0.588000 0.588000
	Kd 0.588000 0.588000 0.588000
	Ks 0.000000 0.000000 0.000000
	Ke 0.000000 0.000000 0.000000
	map_Ka Flash_Diff.png
	map_Kd Flash_Diff.png

newmtl material_29
	Ns 10.000000
	Ni 1.500000
	d 1.000000
	Tr 0.000000
	Tf 1.000000 1.000000 1.000000 
	illum 2
	Ka 0.588000 0.588000 0.588000
	Kd 0.588000 0.588000 0.588000
	Ks 0.000000 0.000000 0.000000
	Ke 0.000000 0.000000 0.000000
	map_Ka Flash_Diff.png
	map_Kd Flash_Diff.png

newmtl material_30
	Ns 10.000000
	Ni 1.500000
	d 1.000000
	Tr 0.000000
	Tf 1.000000 1.000000 1.000000 
	illum 2
	Ka 0.588000 0.588000 0.588000
	Kd 0.588000 0.588000 0.588000
	Ks 0.000000 0.000000 0.000000
	Ke 0.000000 0.000000 0.000000
	map_Ka Flash_Diff.png
	map_Kd Flash_Diff.png

newmtl material_31
	Ns 10.000000
	Ni 1.500000
	d 1.000000
	Tr 0.000000
	Tf 1.000000 1.000000 1.000000 
	illum 2
	Ka 0.588000 0.588000 0.588000
	Kd 0.588000 0.588000 0.588000
	Ks 0.000000 0.000000 0.000000
	Ke 0.000000 0.000000 0.000000
	map_Ka Flash_Diff.png
	map_Kd Flash_Diff.png

newmtl material_32
	Ns 10.000000
	Ni 1.500000
	d 1.000000
	Tr 0.000000
	Tf 1.000000 1.000000 1.000000 
	illum 2
	Ka 0.588000 0.588000 0.588000
	Kd 0.588000 0.588000 0.588000
	Ks 0.000000 0.000000 0.000000
	Ke 0.000000 0.000000 0.000000
	map_Ka Flash_Diff.png
	map_Kd Flash_Diff.png

newmtl material_33
	Ns 10.000000
	Ni 1.500000
	d 1.000000
	Tr 0.000000
	Tf 1.000000 1.000000 1.000000 
	illum 2
	Ka 0.588000 0.588000 0.588000
	Kd 0.588000 0.588000 0.588000
	Ks 0.000000 0.000000 0.000000
	Ke 0.000000 0.000000 0.000000
	map_Ka Flash_Diff.png
	map_Kd Flash_Diff.png

newmtl material_34
	Ns 10.000000
	Ni 1.500000
	d 1.000000
	Tr 0.000000
	Tf 1.000000 1.000000 1.000000 
	illum 2
	Ka 0.588000 0.588000 0.588000
	Kd 0.588000 0.588000 0.588000
	Ks 0.000000 0.000000 0.000000
	Ke 0.000000 0.000000 0.000000
	map_Ka Flash_Diff.png
	map_Kd Flash_Diff.png

newmtl material_35
	Ns 10.000000
	Ni 1.500000
	d 1.000000
	Tr 0.000000
	Tf 1.000000 1.000000 1.000000 
	illum 2
	Ka 0.588000 0.588000 0.588000
	Kd 0.588000 0.588000 0.588000
	Ks 0.000000 0.000000 0.000000
	Ke 0.000000 0.000000 0.000000
	map_Ka Flash_Diff.png
	map_Kd Flash_Diff.png

newmtl material_36
	Ns 10.000000
	Ni 1.500000
	d 1.000000
	Tr 0.000000
	Tf 1.000000 1.000000 1.000000 
	illum 2
	Ka 0.588000 0.588000 0.588000
	Kd 0.588000 0.588000 0.588000
	Ks 0.000000 0.000000 0.000000
	Ke 0.000000 0.000000 0.000000
	map_Ka Flash_Diff.png
	map_Kd Flash_Diff.png

newmtl material_37
	Ns 10.000000
	Ni 1.500000
	d 1.000000
	Tr 0.000000
	Tf 1.000000 1.000000 1.000000 
	illum 2
	Ka 0.588000 0.588000 0.588000
	Kd 0.588000 0.588000 0.588000
	Ks 0.000000 0.000000 0.000000
	Ke 0.000000 0.000000 0.000000
	map_Ka Flash_Diff.png
	map_Kd Flash_Diff.png

newmtl material_38
	Ns 10.000000
	Ni 1.500000
	d 1.000000
	Tr 0.000000
	Tf 1.000000 1.000000 1.000000 
	illum 2
	Ka 0.588000 0.588000 0.588000
	Kd 0.588000 0.588000 0.588000
	Ks 0.000000 0.000000 0.000000
	Ke 0.000000 0.000000 0.000000
	map_Ka Flash_Diff.png
	map_Kd Flash_Diff.png

newmtl material_39
	Ns 10.000000
	Ni 1.500000
	d 1.000000
	Tr 0.000000
	Tf 1.000000 1.000000 1.000000 
	illum 2
	Ka 0.588000 0.588000 0.588000
	Kd 0.588000 0.588000 0.588000
	Ks 0.000000 0.000000 0.000000
	Ke 0.000000 0.000000 0.000000
	map_Ka Flash_Diff.png
	map_Kd Flash_Diff.png

newmtl material_40
	Ns 10.000000
	Ni 1.500000
	d 1.000000
	Tr 0.000000
	Tf 1.000000 1.000000 1.000000 
	illum 2
	Ka 0.588000 0.588000 0.588000
	Kd 0.588000 0.588000 0.588000
	Ks 0.000000 0.000000 0.000000
	Ke 0.000000 0.000000 0.000000
	map_Ka Flash_Diff.png
	map_Kd Flash_Diff.png

newmtl material_41
	Ns 10.000000
	Ni 1.500000
	d 1.000000
	Tr 0.000000
	Tf 1.000000 1.000000 1.000000 
	illum 2
	Ka 0.588000 0.588000 0.588000
	Kd 0.588000 0.588000 0.588000
	Ks 0.000000 0.000000 0.000000
	Ke 0.000000 0.000000 0.000000
	map_Ka Flash_Diff.png
	map_Kd Flash_Diff.png

newmtl material_42
	Ns 10.000000
	Ni 1.500000
	d 1.000000
	Tr 0.000000
	Tf 1.000000 1.000000 1.000000 
	illum 2
	Ka 0.588000 0.588000 0.588000
	Kd 0.588000 0.588000 0.588000
	Ks 0.000000 0.000000 0.000000
	Ke 0.000000 0.000000 0.000000
	map_Ka Flash_Diff.png
	map_Kd Flash_Diff.png

newmtl material_43
	Ns 10.000000
	Ni 1.500000
	d 1.000000
	Tr 0.000000
	Tf 1.000000 1.000000 1.000000 
	illum 2
	Ka 0.588000 0.588000 0.588000
	Kd 0.588000 0.588000 0.588000
	Ks 0.000000 0.000000 0.000000
	Ke 0.000000 0.000000 0.000000
	map_Ka Flash_Diff.png
	map_Kd Flash_Diff.png

newmtl material_44
	Ns 10.000000
	Ni 1.500000
	d 1.000000
	Tr 0.000000
	Tf 1.000000 1.000000 1.000000 
	illum 2
	Ka 0.588000 0.588000 0.588000
	Kd 0.588000 0.588000 0.588000
	Ks 0.000000 0.000000 0.000000
	Ke 0.000000 0.000000 0.000000
	map_Ka Flash_Diff.png
	map_Kd Flash_Diff.png

newmtl material_45
	Ns 10.000000
	Ni 1.500000
	d 1.000000
	Tr 0.000000
	Tf 1.000000 1.000000 1.000000 
	illum 2
	Ka 0.588000 0.588000 0.588000
	Kd 0.588000 0.588000 0.588000
	Ks 0.000000 0.000000 0.000000
	Ke 0.000000 0.000000 0.000000
	map_Ka Flash_Diff.png
	map_Kd Flash_Diff.png

newmtl material_46
	Ns 10.000000
	Ni 1.500000
	d 1.000000
	Tr 0.000000
	Tf 1.000000 1.000000 1.000000 
	illum 2
	Ka 0.588000 0.588000 0.588000
	Kd 0.588000 0.588000 0.588000
	Ks 0.000000 0.000000 0.000000
	Ke 0.000000 0.000000 0.000000
	map_Ka Flash_Diff.png
	map_Kd Flash_Diff.png

newmtl material_47
	Ns 10.000000
	Ni 1.500000
	d 1.000000
	Tr 0.000000
	Tf 1.000000 1.000000 1.000000 
	illum 2
	Ka 0.588000 0.588000 0.588000
	Kd 0.588000 0.588000 0.588000
	Ks 0.000000 0.000000 0.000000
	Ke 0.000000 0.000000 0.000000
	map_Ka Flash_Diff.png
	map_Kd Flash_Diff.png

newmtl material_48
	Ns 10.000000
	Ni 1.500000
	d 1.000000
	Tr 0.000000
	Tf 1.000000 1.000000 1.000000 
	illum 2
	Ka 0.588000 0.588000 0.588000
	Kd 0.588000 0.588000 0.588000
	Ks 0.000000 0.000000 0.000000
	Ke 0.000000 0.000000 0.000000
	map_Ka Flash_Diff.png
	map_Kd Flash_Diff.png

newmtl material_49
	Ns 10.000000
	Ni 1.500000
	d 1.000000
	Tr 0.000000
	Tf 1.000000 1.000000 1.000000 
	illum 2
	Ka 0.588000 0.588000 0.588000
	Kd 0.588000 0.588000 0.588000
	Ks 0.000000 0.000000 0.000000
	Ke 0.000000 0.000000 0.000000
	map_Ka Flash_Diff.png
	map_Kd Flash_Diff.png

newmtl material_50
	Ns 10.000000
	Ni 1.500000
	d 1.000000
	Tr 0.000000
	Tf 1.000000 1.000000 1.000000 
	illum 2
	Ka 0.588000 0.588000 0.588000
	Kd 0.588000 0.588000 0.588000
	Ks 0.000000 0.000000 0.000000
	Ke 0.000000 0.000000 0.000000
	map_Ka Flash_Diff.png
	map_Kd Flash_Diff.png

newmtl material_51
	Ns 10.000000
	Ni 1.500000
	d 1.000000
	Tr 0.000000
	Tf 1.000000 1.000000 1.000000 
	illum 2
	Ka 0.588000 0.588000 0.588000
	Kd 0.588000 0.588000 0.588000
	Ks 0.000000 0.000000 0.000000
	Ke 0.000000 0.000000 0.000000
	map_Ka Flash_Diff.png
	map_Kd Flash_Diff.png

newmtl material_52
	Ns 10.000000
	Ni 1.500000
	d 1.000000
	Tr 0.000000
	Tf 1.000000 1.000000 1.000000 
	illum 2
	Ka 0.588000 0.588000 0.588000
	Kd 0.588000 0.588000 0.588000
	Ks 0.000000 0.000000 0.000000
	Ke 0.000000 0.000000 0.000000
	map_Ka Flash_Diff.png
	map_Kd Flash_Diff.png

newmtl material_53
	Ns 10.000000
	Ni 1.500000
	d 1.000000
	Tr 0.000000
	Tf 1.000000 1.000000 1.000000 
	illum 2
	Ka 0.588000 0.588000 0.588000
	Kd 0.588000 0.588000 0.588000
	Ks 0.000000 0.000000 0.000000
	Ke 0.000000 0.000000 0.000000
	map_Ka Flash_Diff.png
	map_Kd Flash_Diff.png

newmtl material_54
	Ns 10.000000
	Ni 1.500000
	d 1.000000
	Tr 0.000000
	Tf 1.000000 1.000000 1.000000 
	illum 2
	Ka 0.588000 0.588000 0.588000
	Kd 0.588000 0.588000 0.588000
	Ks 0.000000 0.000000 0.000000
	Ke 0.000000 0.000000 0.000000
	map_Ka Flash_Diff.png
	map_Kd Flash_Diff.png

newmtl material_55
	Ns 10.000000
	Ni 1.500000
	d 1.000000
	Tr 0.000000
	Tf 1.000000 1.000000 1.000000 
	illum 2
	Ka 0.588000 0.588000 0.588000
	Kd 0.588000 0.588000 0.588000
	Ks 0.000000 0.000000 0.000000
	Ke 0.000000 0.000000 0.000000
	map_Ka Flash_Diff.png
	map_Kd Flash_Diff.png

newmtl material_56
	Ns 10.000000
	Ni 1.500000
	d 1.000000
	Tr 0.000000
	Tf 1.000000 1.000000 1.000000 
	illum 2
	Ka 0.588000 0.588000 0.588000
	Kd 0.588000 0.588000 0.588000
	Ks 0.000000 0.000000 0.000000
	Ke 0.000000 0.000000 0.000000
	map_Ka Flash_Diff.png
	map_Kd Flash_Diff.png

newmtl material_57
	Ns 10.000000
	Ni 1.500000
	d 1.000000
	Tr 0.000000
	Tf 1.000000 1.000000 1.000000 
	illum 2
	Ka 0.588000 0.588000 0.588000
	Kd 0.588000 0.588000 0.588000
	Ks 0.000000 0.000000 0.000000
	Ke 0.000000 0.000000 0.000000
	map_Ka Flash_Diff.png
	map_Kd Flash_Diff.png

newmtl material_58
	Ns 10.000000
	Ni 1.500000
	d 1.000000
	Tr 0.000000
	Tf 1.000000 1.000000 1.000000 
	illum 2
	Ka 0.588000 0.588000 0.588000
	Kd 0.588000 0.588000 0.588000
	Ks 0.000000 0.000000 0.000000
	Ke 0.000000 0.000000 0.000000
	map_Ka Flash_Diff.png
	map_Kd Flash_Diff.png

newmtl material_59
	Ns 10.000000
	Ni 1.500000
	d 1.000000
	Tr 0.000000
	Tf 1.000000 1.000000 1.000000 
	illum 2
	Ka 0.588000 0.588000 0.588000
	Kd 0.588000 0.588000 0.588000
	Ks 0.000000 0.000000 0.000000
	Ke 0.000000 0.000000 0.000000
	map_Ka Flash_Diff.png
	map_Kd Flash_Diff.png

newmtl material_60
	Ns 10.000000
	Ni 1.500000
	d 1.000000
	Tr 0.000000
	Tf 1.000000 1.000000 1.000000 
	illum 2
	Ka 0.588000 0.588000 0.588000
	Kd 0.588000 0.588000 0.588000
	Ks 0.000000 0.000000 0.000000
	Ke 0.000000 0.000000 0.000000
	map_Ka Flash_Diff.png
	map_Kd Flash_Diff.png

newmtl material_61
	Ns 10.000000
	Ni 1.500000
	d 1.000000
	Tr 0.000000
	Tf 1.000000 1.000000 1.000000 
	illum 2
	Ka 0.588000 0.588000 0.588000
	Kd 0.588000 0.588000 0.588000
	Ks 0.000000 0.000000 0.000000
	Ke 0.000000 0.000000 0.000000
	map_Ka Flash_Diff.png
	map_Kd Flash_Diff.png
