# 
# 

newmtl GreenArrow
Ns 96.078431
Ka 0.000000 0.000000 0.000000
Kd 0.640000 0.640000 0.640000
Ks 0.000000 0.000000 0.000000
Ni 1.000000
d 1.000000
illum 1
map_Kd GreenArrow_D.png
map_Bump GreenArrow_N.png
